[
   {
        "@context": "http://schema.org",
        "@type": "FlightReservation",
        "reservationFor": {
            "@type": "Flight",
            "airline": {
                "@type": "Airline",
                "iataCode": "XY"
            },
            "arrivalAirport": {
                "@type": "Airport",
                "iataCode": "TXL",
                "name": "Tegel"
            },
            "arrivalTime": {
                "@type": "QDateTime",
                "@value": "1995-10-17T18:35:00+01:00",
                "timezone": "Europe/Berlin"
            },
            "departureAirport": {
                "@type": "Airport",
                "iataCode": "FRA"
            },
            "departureDay": "1995-10-17",
            "departureTime": {
                "@type": "QDateTime",
                "@value": "1995-10-17T17:35:00+02:00",
                "timezone": "Europe/Helsinki"
            },
            "flightNumber": "1234"
        },
        "reservationNumber": "XXX006"
    },

    {
        "@context": "http://schema.org",
        "@type": "FlightReservation",
        "reservationFor": {
            "@type": "Flight",
            "airline": {
                "@type": "Airline",
                "iataCode": "AY",
                "name": "Finnair"
            },
            "arrivalAirport": {
                "@type": "Airport",
                "iataCode": "HEL",
                "name": "Helsinki-Vantaa"
            },
            "arrivalTime": {
                "@type": "QDateTime",
                "@value": "1996-10-16T20:45:00+02:00",
                "timezone": "Europe/Helsinki"
            },
            "departureAirport": {
                "@type": "Airport",
                "iataCode": "TXL",
                "name": "Tegel"
            },
            "departureDay": "1996-10-16",
            "departureTime": {
                "@type": "QDateTime",
                "@value": "1996-10-16T17:50:00+01:00",
                "timezone": "Europe/Berlin"
            },
            "flightNumber": "1438"
        },
        "reservationNumber": "XXX007"
    },
    {
        "@context": "http://schema.org",
        "@type": "LodgingReservation",
        "checkinTime": {
            "@type": "QDateTime",
            "@value": "1996-10-16T15:00:00+02:00",
            "timezone": "Europe/Helsinki"
        },
        "checkoutTime": {
            "@type": "QDateTime",
            "@value": "1996-10-17T12:00:00+02:00",
            "timezone": "Europe/Helsinki"
        },
        "reservationFor": {
            "@type": "LodgingBusiness",
            "address": {
                "@type": "PostalAddress",
                "addressCountry": "FI"
            },
            "name": "Some Hotel in Finland"
        },
        "reservationNumber": "YYY008"
    },
    {
        "@context": "http://schema.org",
        "@type": "FlightReservation",
        "reservationFor": {
            "@type": "Flight",
            "airline": {
                "@type": "Airline",
                "iataCode": "AY",
                "name": "Finnair"
            },
            "arrivalAirport": {
                "@type": "Airport",
                "iataCode": "TXL",
                "name": "Tegel"
            },
            "arrivalTime": {
                "@type": "QDateTime",
                "@value": "1996-10-17T18:35:00+01:00",
                "timezone": "Europe/Berlin"
            },
            "departureAirport": {
                "@type": "Airport",
                "iataCode": "HEL",
                "name": "Helsinki-Vantaa"
            },
            "departureDay": "1996-10-17",
            "departureTime": {
                "@type": "QDateTime",
                "@value": "1996-10-17T17:35:00+02:00",
                "timezone": "Europe/Helsinki"
            },
            "flightNumber": "1435"
        },
        "reservationNumber": "XXX007"
    }
]
